R in the CWRS
…
6.2 Correlation and Linear Regression

Tests for correlation of two variables test whether or not a relationship exists between the two variables (i.e., can any of the variance of one variable be explained by variance in the other). This is often done to test association between two parameters when these measurements are paired. In our example, we will test the corellation between mean monthly temperature and total monthly precipitation, to ascertain whether or not a statistically significant relationship exists between the two.

6.2.1 Test Data

Correlation tests all require a data frame with one column for the x variable and one column for the y variable. It is often useful to keep other qualifying variables that give context to each observation, but are not required by the test. In our case, the x variable will be meantemp and the y variable will be totalprecip.

correlation_test_data <- climate_data %>% 
  select(station_name, year, month, meantemp, totalprecip)
correlation_test_data

## # A tibble: 96 x 5
##        station_name  year month meantemp totalprecip
##               <chr> <int> <int>    <dbl>       <dbl>
##  1 KENTVILLE CDA CS  2000     1     -4.2       182.2
##  2 KENTVILLE CDA CS  2000     2     -2.6        10.7
##  3 KENTVILLE CDA CS  2000     3      1.6       116.4
##  4 KENTVILLE CDA CS  2000     4      6.4        89.1
##  5 KENTVILLE CDA CS  2000     5     10.0        58.0
##  6 KENTVILLE CDA CS  2000     6     16.4        46.0
##  7 KENTVILLE CDA CS  2000     7     18.8        72.4
##  8 KENTVILLE CDA CS  2000     8     19.2        36.6
##  9 KENTVILLE CDA CS  2000     9     14.6        58.4
## 10 KENTVILLE CDA CS  2000    10      9.9       197.6
## # ... with 86 more rows
…
