R in the CWRS
…
### Level 3

#### Level 4 (most journals won't allow level 4 or greater headers)

7.4 Inserting code chunks

Code chunks get inserted like this (type the text here or use the Insert menu at the top of the screen):

```{r}
# R code goes here
# the results are printed by default
starwars
```

## # A tibble: 87 x 13
##    name     height  mass hair_color skin_color eye_color birth_year gender
##    <chr>     <int> <dbl> <chr>      <chr>      <chr>          <dbl> <chr> 
##  1 Luke Sk…    172    77 blond      fair       blue            19   male  
##  2 C-3PO       167    75 <NA>       gold       yellow         112   <NA>  
##  3 R2-D2        96    32 <NA>       white, bl… red             33   <NA>  
##  4 Darth V…    202   136 none       white      yellow          41.9 male  
##  5 Leia Or…    150    49 brown      light      brown           19   female
##  6 Owen La…    178   120 brown, gr… light      blue            52   male  
##  7 Beru Wh…    165    75 brown      light      blue            47   female
##  8 R5-D4        97    32 <NA>       white, red red             NA   <NA>  
##  9 Biggs D…    183    84 black      light      brown           24   male  
## 10 Obi-Wan…    182    77 auburn, w… fair       blue-gray       57   male  
## # ... with 77 more rows, and 5 more variables: homeworld <chr>,
## #   species <chr>, films <list>, vehicles <list>, starships <list>

In this template, echoing the code is turned off by default. However, you can turn this on if you are writing a coding tutorial like this:

```{r, echo=TRUE}
# R code goes here
# the results are printed by default
starwars
```

# R code goes here
# the results are printed by default
starwars

## # A tibble: 87 x 13
##    name     height  mass hair_color skin_color eye_color birth_year gender
##    <chr>     <int> <dbl> <chr>      <chr>      <chr>          <dbl> <chr> 
##  1 Luke Sk…    172    77 blond      fair       blue            19   male  
##  2 C-3PO       167    75 <NA>       gold       yellow         112   <NA>  
##  3 R2-D2        96    32 <NA>       white, bl… red             33   <NA>  
##  4 Darth V…    202   136 none       white      yellow          41.9 male  
##  5 Leia Or…    150    49 brown      light      brown           19   female
##  6 Owen La…    178   120 brown, gr… light      blue            52   male  
##  7 Beru Wh…    165    75 brown      light      blue            47   female
##  8 R5-D4        97    32 <NA>       white, red red             NA   <NA>  
##  9 Biggs D…    183    84 black      light      brown           24   male  
## 10 Obi-Wan…    182    77 auburn, w… fair       blue-gray       57   male  
## # ... with 77 more rows, and 5 more variables: homeworld <chr>,
## #   species <chr>, films <list>, vehicles <list>, starships <list>
…
