R in the CWRS
…
2.6.1 Exercises

Inspect july_temp3 to ensure it is identical to july_temp.

Create a data frame of July total precipitation data using climate_data, filter(), select(), and %>%. Is it identical to the data frame you created in the exercise above?

2.7 Summarising A Data Frame

So far we have looked at subsets of climate_data, but what if we want yearly averages instead of monthly averages? Using the tidyverse, we can group_by() the stationid and year column, and summarise():

climate_data %>%
  group_by(stationid, year) %>%
  summarise(mean_temp = mean(meantemp))

## # A tibble: 84 x 3
## # Groups:   stationid [?]
##    stationid  year mean_temp
##        <dbl> <int>     <dbl>
##  1      6354  1942        NA
##  2      6354  1943  6.150000
##  3      6354  1944  6.933333
##  4      6354  1945  6.800000
##  5      6354  1946  6.850000
##  6      6354  1947  7.425000
##  7      6354  1948  6.208333
##  8      6354  1949  7.883333
##  9      6354  1950  6.758333
## 10      6354  1951  7.983333
## # ... with 74 more rows

Here group_by() gets a list of columns, for which each unique combination of values will get one row in the output. summarise() gets a list of expressions that are evaluated for every unique combination of values defined by group_by() (e.g., mean_temp is the mean() of the meantemp column for each station, for each year). Often, we want to include a number of summary columns in the output, which we can do by pasing more expressions to summarise():

climate_data %>%
  group_by(stationid, year) %>%
  summarise(mean_temp = mean(meantemp), 
            max_temp = max(extrmaxtemp),
            min_temp = min(extrmintemp))

## # A tibble: 84 x 5
## # Groups:   stationid [?]
##    stationid  year mean_temp max_temp min_temp
##        <dbl> <int>     <dbl>    <dbl>    <dbl>
##  1      6354  1942        NA       NA       NA
##  2      6354  1943  6.150000     32.8    -27.8
##  3      6354  1944  6.933333     37.2    -21.7
##  4      6354  1945  6.800000     32.8    -21.7
##  5      6354  1946  6.850000     33.3    -25.6
##  6      6354  1947  7.425000     33.9    -26.1
##  7      6354  1948  6.208333     34.4    -30.0
##  8      6354  1949  7.883333     35.6    -21.7
##  9      6354  1950  6.758333     32.2    -25.0
## 10      6354  1951  7.983333     31.7    -26.7
## # ... with 74 more rows

You will notice that in 1942 the mean temperature appears to be NA, or missing. This is because R propogates missing values unless you explicitly tell it not to. To fix this, you could replace mean(meantemp) with mean(meantemp, na.rm = TRUE). Other useful functions to use inside summarise() include mean(), median(), sd(), sum(), min(), and max(). These all take a vector of values and produce a single aggregate value suitable for use in summarise(). One special function, n(), you can use (with no arguments) inside summarise() to tell you how many observations were aggregated to produce the values in that row.

climate_data %>%
  group_by(stationid, year) %>%
  summarise(mean_temp = mean(meantemp, na.rm = TRUE), 
            max_temp = max(extrmaxtemp, na.rm = TRUE),
            min_temp = min(extrmintemp, na.rm = TRUE), 
            n = n())

## # A tibble: 84 x 6
## # Groups:   stationid [?]
##    stationid  year mean_temp max_temp min_temp     n
##        <dbl> <int>     <dbl>    <dbl>    <dbl> <int>
##  1      6354  1942 -1.700000     21.1    -21.1    12
##  2      6354  1943  6.150000     32.8    -27.8    12
##  3      6354  1944  6.933333     37.2    -21.7    12
##  4      6354  1945  6.800000     32.8    -21.7    12
##  5      6354  1946  6.850000     33.3    -25.6    12
##  6      6354  1947  7.425000     33.9    -26.1    12
##  7      6354  1948  6.208333     34.4    -30.0    12
##  8      6354  1949  7.883333     35.6    -21.7    12
##  9      6354  1950  6.758333     32.2    -25.0    12
## 10      6354  1951  7.983333     31.7    -26.7    12
## # ... with 74 more rows
…
